{"help": "https://api.neso.energy/api/3/action/help_show?name=datastore_search", "success": true, "result": {"sort": "DATETIME desc", "include_total": true, "resource_id": "f93d1835-75bc-43e5-84ad-12472b180a98", "fields": [{"type": "int", "id": "_id"}, {"info": {"comment": "", "description": "Date and time of the historic generation mix and carbon intensity, given in UTC (Coordinated Universal Time", "title": "Date & Time", "type": "datetime", "example": "2009-09-03T05:30:00+00:00", "unit": "ISO 8601"}, "type": "timestamp", "id": "DATETIME"}, {"info": {"comment": "", "description": "Amount of generation delivered by this fuel type", "title": "GAS", "type": "number", "example": "10", "unit": ""}, "type": "numeric", "id": "GAS"}, {"info": {"comment": "", "description": "Amount of generation delivered by this fuel type", "title": "Coal", "type": "number", "example": "10", "unit": ""}, "type": "numeric", "id": "COAL"}, {"info": {"comment": "", "description": "Amount of generation delivered by this fuel type", "title": "Nuclear", "type": "number", "example": "42.2", "unit": ""}, "type": "numeric", "id": "NUCLEAR"}, {"info": {"comment": "", "description": "Amount of generation delivered by this fuel type", "title": "Wind", "type": "number", "example": "2", "unit": ""}, "type": "numeric", "id": "WIND"}, {"info": {"comment": "", "description": "", "title": "Wind EMB", "type": "number", "example": "2", "unit": ""}, "type": "numeric", "id": "WIND_EMB"}, {"info": {"comment": "", "description": "Amount of generation delivered by this fuel type", "title": "Hydro", "type": "number", "example": "1", "unit": ""}, "type": "numeric", "id": "HYDRO"}, {"info": {"comment": "", "description": "Interconnector Imports", "title": "Imports", "type": "number", "example": "0", "unit": ""}, "type": "numeric", "id": "IMPORTS"}, {"info": {"comment": "", "description": "Amount of generation delivered by this fuel type", "title": "Biomass", "type": "number", "example": "4.2", "unit": ""}, "type": "numeric", "id": "BIOMASS"}, {"info": {"comment": "", "description": "Amount of generation delivered by other fuel types", "title": "Other", "type": "number", "example": "3.1", "unit": ""}, "type": "numeric", "id": "OTHER"}, {"info": {"comment": " Amount of generation delivered by this fuel type ", "description": "", "title": "Solar", "type": "number", "example": "15.3", "unit": ""}, "type": "numeric", "id": "SOLAR"}, {"info": {"comment": "", "description": " Amount of generation delivered by this fuel type ", "title": "Storage", "type": "number", "example": "43.2", "unit": ""}, "type": "numeric", "id": "STORAGE"}, {"info": {"comment": "", "description": "Sum of gas, coal, nuclear, wind, wind embedded, hydro, imports, biomass, others, solar and storage.", "title": "Generation", "type": "number", "example": "8.2", "unit": ""}, "type": "numeric", "id": "GENERATION"}, {"info": {"comment": "", "description": "The carbon intensity of electricity is a measure of how much Carbon dioxide emissions are produced per kilowatt hour of electricity consumed. ", "title": "CARBON INTENSITY", "type": "number", "example": "", "unit": ""}, "type": "numeric", "id": "CARBON_INTENSITY"}, {"info": {"comment": "", "description": " Low carbon generation e.g. wind, solar, hydro, nuclear, biomass ", "title": "Low Carbon", "type": "number", "example": "", "unit": ""}, "type": "numeric", "id": "LOW_CARBON"}, {"info": {"comment": "", "description": "Zero carbon generation e.g. wind, solar, hydro, nuclear ", "title": "Zero Carbon", "type": "number", "example": "", "unit": ""}, "type": "numeric", "id": "ZERO_CARBON"}, {"info": {"comment": "", "description": "Renewable generation e.g Wind, Hydro, Solar", "title": "RENEWABLE", "type": "number", "example": "", "unit": ""}, "type": "numeric", "id": "RENEWABLE"}, {"info": {"comment": "", "description": "Fossil generation e.g. coal, natural gas ", "title": "FOSSIL", "type": "number", "example": "", "unit": ""}, "type": "numeric", "id": "FOSSIL"}, {"info": {"comment": "", "description": "Fuel Type as a percentage for gas generation.", "title": "Gas percentage", "type": "number", "example": "", "unit": "%"}, "type": "numeric", "id": "GAS_perc"}, {"info": {"comment": "", "description": "Fuel Type as a percentage for coal generation.", "title": "Coal percentage", "type": "number", "example": "", "unit": "%"}, "type": "numeric", "id": "COAL_perc"}, {"info": {"comment": "", "description": "Fuel Type as a percentage for nuclear generation.", "title": "Nuclear percentage", "type": "number", "example": "", "unit": "%"}, "type": "numeric", "id": "NUCLEAR_perc"}, {"info": {"comment": "", "description": "Fuel Type as a percentage for wind generation.", "title": "Wind percentage", "type": "number", "example": "", "unit": "%"}, "type": "numeric", "id": "WIND_perc"}, {"info": {"comment": "", "description": "", "title": "Wind EMB percentage", "type": "number", "example": "", "unit": "%"}, "type": "numeric", "id": "WIND_EMB_perc"}, {"info": {"comment": "", "description": "Fuel Type as a percentage for hydro generation.", "title": "Hydro percentage", "type": "number", "example": "", "unit": "%"}, "type": "numeric", "id": "HYDRO_perc"}, {"info": {"comment": "", "description": "Fuel Type as a percentage for interconnector imports ", "title": "Imports percentage", "type": "number", "example": "", "unit": "%"}, "type": "numeric", "id": "IMPORTS_perc"}, {"info": {"comment": "", "description": "Fuel Type as a percentage for biomass generation.", "title": "Biomass percentage", "type": "number", "example": "", "unit": "%"}, "type": "numeric", "id": "BIOMASS_perc"}, {"info": {"comment": "", "description": "Fuel Type as a percentage for other generation.", "title": "Other percentage", "type": "number", "example": "", "unit": "%"}, "type": "numeric", "id": "OTHER_perc"}, {"info": {"comment": "", "description": "Fuel Type as a percentage for solar generation.", "title": "Solar percentage", "type": "number", "example": "", "unit": "%"}, "type": "numeric", "id": "SOLAR_perc"}, {"info": {"comment": "", "description": "Fuel Type as a percentage for storage", "title": "Storage percentage", "type": "number", "example": "", "unit": "%"}, "type": "numeric", "id": "STORAGE_perc"}, {"info": {"comment": "", "description": "Fuel Type as a percentage for Sum of gas, coal, nuclear, wind, hydro and imports", "title": "Generation percentage", "type": "number", "example": "", "unit": "%"}, "type": "numeric", "id": "GENERATION_perc"}, {"info": {"comment": "", "description": "Fuel Type as a percentage for low carbon generation e.g. wind, solar, hydro, nuclear, biomass", "title": "Low Carbon percentage", "type": "number", "example": "", "unit": "%"}, "type": "numeric", "id": "LOW_CARBON_perc"}, {"info": {"comment": "", "description": "Fuel Type as a percentage for zero carbon generation e.g. wind, solar, hydro, nuclear", "title": "Zero Carbon percentage", "type": "number", "example": "", "unit": "%"}, "type": "numeric", "id": "ZERO_CARBON_perc"}, {"info": {"comment": "", "description": "Fuel Type as a percentage for Renewable generation e.g Wind, Hydro, Solar", "title": "Renewable percentage", "type": "number", "example": "", "unit": "%"}, "type": "numeric", "id": "RENEWABLE_perc"}, {"info": {"comment": "", "description": "Fuel Type as a percentage for Fossil generation e.g. coal, natural gas ", "title": "Fossil percentage", "type": "number", "example": "", "unit": "%"}, "type": "numeric", "id": "FOSSIL_perc"}], "records_format": "objects", "records": [{"_id":10312204,"DATETIME":"2026-06-02T12:00:00","GAS":7600.0,"COAL":0.0,"NUCLEAR":2267.0,"WIND":3313.0,"WIND_EMB":1064.0,"HYDRO":111,"IMPORTS":7392.0,"BIOMASS":2349.0,"OTHER":464.0,"SOLAR":9923.0,"STORAGE":98,"GENERATION":34581.0,"CARBON_INTENSITY":180.0,"LOW_CARBON":19125.0,"ZERO_CARBON":8138.0,"RENEWABLE":14509.0,"FOSSIL":7600.0,"GAS_perc":22.0,"COAL_perc":0.0,"NUCLEAR_perc":6.6,"WIND_perc":9.6,"WIND_EMB_perc":3.1,"HYDRO_perc":0.3,"IMPORTS_perc":21.4,"BIOMASS_perc":6.8,"OTHER_perc":1.3,"SOLAR_perc":28.7,"STORAGE_perc":0.3,"GENERATION_perc":100.0,"LOW_CARBON_perc":55.3,"ZERO_CARBON_perc":50.2,"RENEWABLE_perc":42.0,"FOSSIL_perc":22.0},{"_id":10312203,"DATETIME":"2026-06-02T11:30:00","GAS":7822.0,"COAL":0.0,"NUCLEAR":2268.0,"WIND":3418.0,"WIND_EMB":1029.0,"HYDRO":111,"IMPORTS":7392.0,"BIOMASS":2348.0,"OTHER":451.0,"SOLAR":10021.0,"STORAGE":62,"GENERATION":34922.0,"CARBON_INTENSITY":181.0,"LOW_CARBON":19257.0,"ZERO_CARBON":8207.0,"RENEWABLE":14641.0,"FOSSIL":7822.0,"GAS_perc":22.4,"COAL_perc":0.0,"NUCLEAR_perc":6.5,"WIND_perc":9.8,"WIND_EMB_perc":2.9,"HYDRO_perc":0.3,"IMPORTS_perc":21.2,"BIOMASS_perc":6.7,"OTHER_perc":1.3,"SOLAR_perc":28.7,"STORAGE_perc":0.2,"GENERATION_perc":100.0,"LOW_CARBON_perc":55.1,"ZERO_CARBON_perc":49.8,"RENEWABLE_perc":41.9,"FOSSIL_perc":22.4},{"_id":10312202,"DATETIME":"2026-06-02T11:00:00","GAS":8400.0,"COAL":0.0,"NUCLEAR":2265.0,"WIND":3653.0,"WIND_EMB":985.0,"HYDRO":117,"IMPORTS":7392.0,"BIOMASS":2358.0,"OTHER":464.0,"SOLAR":9650.0,"STORAGE":60,"GENERATION":35344.0,"CARBON_INTENSITY":185.0,"LOW_CARBON":19088.0,"ZERO_CARBON":8453.0,"RENEWABLE":14465.0,"FOSSIL":8400.0,"GAS_perc":23.8,"COAL_perc":0.0,"NUCLEAR_perc":6.4,"WIND_perc":10.3,"WIND_EMB_perc":2.8,"HYDRO_perc":0.3,"IMPORTS_perc":20.9,"BIOMASS_perc":6.7,"OTHER_perc":1.3,"SOLAR_perc":27.3,"STORAGE_perc":0.2,"GENERATION_perc":100.0,"LOW_CARBON_perc":54.0,"ZERO_CARBON_perc":48.8,"RENEWABLE_perc":40.9,"FOSSIL_perc":23.8}], "limit": 3, "_links": {"start": "/api/3/action/datastore_search?sort=DATETIME+desc&limit=3&resource_id=f93d1835-75bc-43e5-84ad-12472b180a98", "next": "/api/3/action/datastore_search?sort=DATETIME+desc&offset=3&limit=3&resource_id=f93d1835-75bc-43e5-84ad-12472b180a98"}, "total": 305353}}