{"count":29998,"next":"https://api.octopus.energy/v1/products/AGILE-24-10-01/electricity-tariffs/E-1R-AGILE-24-10-01-C/standard-unit-rates/?page=2&page_size=4","previous":null,"results":[{"value_exc_vat":18.86,"value_inc_vat":19.803,"valid_from":"2026-06-02T21:30:00Z","valid_to":"2026-06-02T22:00:00Z","payment_method":null},{"value_exc_vat":20.02,"value_inc_vat":21.021,"valid_from":"2026-06-02T21:00:00Z","valid_to":"2026-06-02T21:30:00Z","payment_method":null},{"value_exc_vat":21.46,"value_inc_vat":22.533,"valid_from":"2026-06-02T20:30:00Z","valid_to":"2026-06-02T21:00:00Z","payment_method":null},{"value_exc_vat":23.06,"value_inc_vat":24.213,"valid_from":"2026-06-02T20:00:00Z","valid_to":"2026-06-02T20:30:00Z","payment_method":null}]}